<svg width="82" height="100" viewBox="0 0 82 100" fill="none" xmlns="http://www.w3.org/2000/svg">
<path d="M78.4814 3.33789C76.2544 1.11221 73.5815 0 70.4556 0H11.3639C8.23874 0 5.56356 1.11221 3.33789 3.33789C1.11271 5.56405 9.10993e-08 8.23849 9.10993e-08 11.3639V88.6376C9.10993e-08 91.7635 1.11271 94.4359 3.33789 96.6629C5.56356 98.889 8.23874 100 11.3639 100H70.4553C73.5813 100 76.2544 98.889 78.4814 96.6629C80.7068 94.4359 81.8202 91.762 81.8202 88.6376V11.3642C81.8202 8.23849 80.7043 5.56331 78.4814 3.33789ZM44.106 94.1063C43.2072 95.0054 42.1412 95.4549 40.9096 95.4549C39.6778 95.4549 38.6128 95.0054 37.713 94.1063C36.8133 93.2058 36.3638 92.1401 36.3638 90.9105C36.3638 89.6796 36.8133 88.6122 37.713 87.7147C38.6138 86.8141 39.6788 86.3629 40.9096 86.3629C42.141 86.3629 43.2069 86.8139 44.106 87.7147C45.005 88.6119 45.4562 89.6794 45.4562 90.9105C45.4562 92.1401 45.005 93.2051 44.106 94.1063ZM72.7283 79.5458C72.7283 80.1622 72.5019 80.6934 72.0541 81.1446C71.6031 81.5959 71.0717 81.819 70.4553 81.819H11.3639C10.7485 81.819 10.2159 81.5941 9.76614 81.1446C9.31638 80.6951 9.0915 80.1622 9.0915 79.5458V11.3642C9.0915 10.7485 9.31613 10.2157 9.76614 9.76614C10.2162 9.31613 10.7485 9.0915 11.3639 9.0915H70.4553C71.0717 9.0915 71.6029 9.31538 72.0541 9.76614C72.5036 10.2157 72.7283 10.7485 72.7283 11.3642V79.5458Z" fill="#A3AECC"/>
</svg>
